{
  "images" : [
    {
      "idiom" : "universal",
      "filename" : "^CA96F15BB8FA31AFB24EFB639129E48C7BF46A93BC1D69EE83^pimgpsh_fullsize_distr.png",
      "scale" : "1x"
    },
    {
      "idiom" : "universal",
      "filename" : "^3193EC8747D89F11712A18A2FCEDBB0A2A38F7F5579C1740DE^pimgpsh_fullsize_distr.png",
      "scale" : "2x"
    },
    {
      "idiom" : "universal",
      "filename" : "^05508AE807AE2B9ECE8F5493599B2A8777516B3E40478015C2^pimgpsh_fullsize_distr.png",
      "scale" : "3x"
    }
  ],
  "info" : {
    "version" : 1,
    "author" : "xcode"
  }
}